   1               		.file	"HostStandardReq.c"
   2               	__SREG__ = 0x3f
   3               	__SP_H__ = 0x3e
   4               	__SP_L__ = 0x3d
   5               	__tmp_reg__ = 0
   6               	__zero_reg__ = 1
   7               		.global __do_copy_data
   8               		.global __do_clear_bss
  16               	.Ltext0:
  17               	.Letext0:
DEFINED SYMBOLS
                            *ABS*:0000000000000000 HostStandardReq.c
     /tmp/ccU2SiHQ.s:2      *ABS*:000000000000003f __SREG__
     /tmp/ccU2SiHQ.s:3      *ABS*:000000000000003e __SP_H__
     /tmp/ccU2SiHQ.s:4      *ABS*:000000000000003d __SP_L__
     /tmp/ccU2SiHQ.s:5      *ABS*:0000000000000000 __tmp_reg__
     /tmp/ccU2SiHQ.s:6      *ABS*:0000000000000001 __zero_reg__

UNDEFINED SYMBOLS
__do_copy_data
__do_clear_bss
