   1               		.file	"Serial.c"
   2               	__SREG__ = 0x3f
   3               	__SP_H__ = 0x3e
   4               	__SP_L__ = 0x3d
   5               	__tmp_reg__ = 0
   6               	__zero_reg__ = 1
   7               		.global __do_copy_data
   8               		.global __do_clear_bss
  16               	.Ltext0:
  17               		.section	.text.Serial_TxString_P,"ax",@progbits
  18               	.global	Serial_TxString_P
  20               	Serial_TxString_P:
  21               	.LFB9:
  22               	.LSM0:
  23               	.LVL0:
  24               	/* prologue: function */
  25               	/* frame size = 0 */
  26               	/* stack size = 0 */
  27               	.L__stack_usage = 0
  28               	.LSM1:
  29 0000 00C0      		rjmp .L2
  30               	.LVL1:
  31               	.L4:
  32               	.LBB7:
  33               	.LBB8:
  34               	.LSM2:
  35 0002 3091 C800 		lds r19,200
  36 0006 35FF      		sbrs r19,5
  37 0008 00C0      		rjmp .L4
  38               	.LSM3:
  39 000a 2093 CE00 		sts 206,r18
  40               	.LBE8:
  41               	.LBE7:
  42               	.LSM4:
  43 000e 0196      		adiw r24,1
  44               	.LVL2:
  45               	.L2:
  46               	.LBB9:
  47               	.LSM5:
  48 0010 FC01      		movw r30,r24
  49               	/* #APP */
  50               	 ;  37 "../../../../LUFA/Drivers/Peripheral/Serial.c" 1
  51 0012 2491      		lpm r18, Z
  52               		
  53               	 ;  0 "" 2
  54               	.LVL3:
  55               	/* #NOAPP */
  56               	.LBE9:
  57 0014 2223      		tst r18
  58 0016 01F4      		brne .L4
  59               	/* epilogue start */
  60               	.LSM6:
  61 0018 0895      		ret
  62               	.LFE9:
  64               		.section	.text.Serial_TxString,"ax",@progbits
  65               	.global	Serial_TxString
  67               	Serial_TxString:
  68               	.LFB10:
  69               	.LSM7:
  70               	.LVL4:
  71               	/* prologue: function */
  72               	/* frame size = 0 */
  73               	/* stack size = 0 */
  74               	.L__stack_usage = 0
  75               	.LSM8:
  76 0000 282F      		mov r18,r24
  77 0002 392F      		mov r19,r25
  78 0004 F901      		movw r30,r18
  79               	.LSM9:
  80 0006 00C0      		rjmp .L7
  81               	.LVL5:
  82               	.L9:
  83               	.LBB10:
  84               	.LBB11:
  85               	.LSM10:
  86 0008 9091 C800 		lds r25,200
  87 000c 95FF      		sbrs r25,5
  88 000e 00C0      		rjmp .L9
  89               	.LSM11:
  90 0010 8093 CE00 		sts 206,r24
  91               	.LVL6:
  92               	.L7:
  93               	.LBE11:
  94               	.LBE10:
  95               	.LSM12:
  96 0014 8191      		ld r24,Z+
  97               	.LVL7:
  98 0016 8823      		tst r24
  99 0018 01F4      		brne .L9
 100               	/* epilogue start */
 101               	.LSM13:
 102 001a 0895      		ret
 103               	.LFE10:
 137               	.Letext0:
DEFINED SYMBOLS
                            *ABS*:0000000000000000 Serial.c
     /tmp/cco5CmAB.s:2      *ABS*:000000000000003f __SREG__
     /tmp/cco5CmAB.s:3      *ABS*:000000000000003e __SP_H__
     /tmp/cco5CmAB.s:4      *ABS*:000000000000003d __SP_L__
     /tmp/cco5CmAB.s:5      *ABS*:0000000000000000 __tmp_reg__
     /tmp/cco5CmAB.s:6      *ABS*:0000000000000001 __zero_reg__
     /tmp/cco5CmAB.s:20     .text.Serial_TxString_P:0000000000000000 Serial_TxString_P
     /tmp/cco5CmAB.s:67     .text.Serial_TxString:0000000000000000 Serial_TxString

UNDEFINED SYMBOLS
__do_copy_data
__do_clear_bss
