   1               		.file	"MassStorage.c"
   2               	__SREG__ = 0x3f
   3               	__SP_H__ = 0x3e
   4               	__SP_L__ = 0x3d
   5               	__tmp_reg__ = 0
   6               	__zero_reg__ = 1
   7               		.global __do_copy_data
   8               		.global __do_clear_bss
  16               	.Ltext0:
  17               		.section	.text.StreamCallback_MS_Device_AbortOnMassStoreReset,"ax",@progbits
  19               	StreamCallback_MS_Device_AbortOnMassStoreReset:
  20               	.LFB84:
  21               	.LSM0:
  22               	/* prologue: function */
  23               	/* frame size = 0 */
  24               	/* stack size = 0 */
  25               	.L__stack_usage = 0
  26               	.LSM1:
  27 0000 0E94 0000 		call USB_USBTask
  28               	.LSM2:
  29 0004 E091 0000 		lds r30,CallbackIsResetSource
  30 0008 F091 0000 		lds r31,CallbackIsResetSource+1
  31 000c 8081      		ld r24,Z
  32               	/* epilogue start */
  33               	.LSM3:
  34 000e 0895      		ret
  35               	.LFE84:
  37               		.section	.text.MS_Device_ProcessControlRequest,"ax",@progbits
  38               	.global	MS_Device_ProcessControlRequest
  40               	MS_Device_ProcessControlRequest:
  41               	.LFB79:
  42               	.LSM4:
  43               	.LVL0:
  44 0000 CF93      		push r28
  45 0002 DF93      		push r29
  46               	/* prologue: function */
  47               	/* frame size = 0 */
  48               	/* stack size = 2 */
  49               	.L__stack_usage = 2
  50 0004 EC01      		movw r28,r24
  51               	.LBB64:
  52               	.LBB65:
  53               	.LSM5:
  54 0006 8091 E800 		lds r24,232
  55               	.LVL1:
  56               	.LBE65:
  57               	.LBE64:
  58               	.LSM6:
  59 000a 83FF      		sbrs r24,3
  60 000c 00C0      		rjmp .L2
  61               	.LSM7:
  62 000e 8881      		ld r24,Y
  63 0010 90E0      		ldi r25,lo8(0)
  64 0012 2091 0000 		lds r18,USB_ControlRequest+4
  65 0016 3091 0000 		lds r19,USB_ControlRequest+4+1
  66 001a 2817      		cp r18,r24
  67 001c 3907      		cpc r19,r25
  68 001e 01F4      		brne .L2
  69               	.LSM8:
  70 0020 8091 0000 		lds r24,USB_ControlRequest+1
  71 0024 8E3F      		cpi r24,lo8(-2)
  72 0026 01F0      		breq .L4
  73 0028 8F3F      		cpi r24,lo8(-1)
  74 002a 01F4      		brne .L2
  75               	.LSM9:
  76 002c 8091 0000 		lds r24,USB_ControlRequest
  77 0030 8132      		cpi r24,lo8(33)
  78 0032 01F4      		brne .L2
  79               	.LBB66:
  80               	.LBB67:
  81               	.LSM10:
  82 0034 8091 E800 		lds r24,232
  83 0038 877F      		andi r24,lo8(-9)
  84 003a 8093 E800 		sts 232,r24
  85               	.LBE67:
  86               	.LBE66:
  87               	.LSM11:
  88 003e 0E94 0000 		call Endpoint_ClearStatusStage
  89               	.LSM12:
  90 0042 81E0      		ldi r24,lo8(1)
  91 0044 8EAB      		std Y+54,r24
  92 0046 00C0      		rjmp .L2
  93               	.L4:
  94               	.LSM13:
  95 0048 8091 0000 		lds r24,USB_ControlRequest
  96 004c 813A      		cpi r24,lo8(-95)
  97 004e 01F4      		brne .L2
  98               	.LBB68:
  99               	.LBB69:
 100               	.LSM14:
 101 0050 8091 E800 		lds r24,232
 102 0054 877F      		andi r24,lo8(-9)
 103 0056 8093 E800 		sts 232,r24
 104               	.LBE69:
 105               	.LBE68:
 106               	.LSM15:
 107 005a 8985      		ldd r24,Y+9
 108 005c 8150      		subi r24,lo8(-(-1))
 109               	.LVL2:
 110               	.LBB70:
 111               	.LBB71:
 112               	.LSM16:
 113 005e 8093 F100 		sts 241,r24
 114               	.LBE71:
 115               	.LBE70:
 116               	.LBB72:
 117               	.LBB73:
 118               	.LSM17:
 119 0062 8091 E800 		lds r24,232
 120               	.LVL3:
 121 0066 8E77      		andi r24,lo8(126)
 122 0068 8093 E800 		sts 232,r24
 123               	.LBE73:
 124               	.LBE72:
 125               	.LSM18:
 126 006c 0E94 0000 		call Endpoint_ClearStatusStage
 127               	.LVL4:
 128               	.L2:
 129               	/* epilogue start */
 130               	.LSM19:
 131 0070 DF91      		pop r29
 132 0072 CF91      		pop r28
 133               	.LVL5:
 134 0074 0895      		ret
 135               	.LFE79:
 137               		.section	.text.MS_Device_ConfigureEndpoints,"ax",@progbits
 138               	.global	MS_Device_ConfigureEndpoints
 140               	MS_Device_ConfigureEndpoints:
 141               	.LFB80:
 142               	.LSM20:
 143               	.LVL6:
 144 0000 1F93      		push r17
 145 0002 CF93      		push r28
 146 0004 DF93      		push r29
 147               	/* prologue: function */
 148               	/* frame size = 0 */
 149               	/* stack size = 3 */
 150               	.L__stack_usage = 3
 151 0006 EC01      		movw r28,r24
 152               	.LSM21:
 153 0008 0A96      		adiw r24,10
 154               	.LVL7:
 155 000a FC01      		movw r30,r24
 156 000c 8DE2      		ldi r24,lo8(45)
 157 000e DF01      		movw r26,r30
 158 0010 1D92      		st X+,__zero_reg__
 159 0012 8A95      	        dec r24
 160 0014 01F4      		brne .-6
 161               	.LVL8:
 162               	.LSM22:
 163 0016 11E0      		ldi r17,lo8(1)
 164               	.LVL9:
 165               	.L14:
 166               	.LBB74:
 167               	.LBB75:
 168               	.LSM23:
 169 0018 8981      		ldd r24,Y+1
 170 001a 1817      		cp r17,r24
 171 001c 01F4      		brne .L7
 172               	.LSM24:
 173 001e EA81      		ldd r30,Y+2
 174 0020 FB81      		ldd r31,Y+3
 175               	.LVL10:
 176               	.LSM25:
 177 0022 8C81      		ldd r24,Y+4
 178               	.LVL11:
 179               	.LSM26:
 180 0024 61E0      		ldi r22,lo8(1)
 181 0026 00C0      		rjmp .L8
 182               	.LVL12:
 183               	.L7:
 184               	.LSM27:
 185 0028 8D81      		ldd r24,Y+5
 186 002a 1817      		cp r17,r24
 187 002c 01F4      		brne .L9
 188               	.LSM28:
 189 002e EE81      		ldd r30,Y+6
 190 0030 FF81      		ldd r31,Y+7
 191               	.LVL13:
 192               	.LSM29:
 193 0032 8885      		ldd r24,Y+8
 194               	.LVL14:
 195               	.LSM30:
 196 0034 60E0      		ldi r22,lo8(0)
 197               	.LVL15:
 198               	.L8:
 199               	.LSM31:
 200 0036 8823      		tst r24
 201 0038 01F0      		breq .L15
 202 003a 44E0      		ldi r20,lo8(4)
 203 003c 00C0      		rjmp .L10
 204               	.L15:
 205 003e 40E0      		ldi r20,lo8(0)
 206               	.L10:
 207               	.LVL16:
 208               	.LBB76:
 209               	.LBB77:
 210               	.LSM32:
 211 0040 6068      		ori r22,lo8(-128)
 212               	.LVL17:
 213               	.LSM33:
 214 0042 28E0      		ldi r18,lo8(8)
 215 0044 30E0      		ldi r19,hi8(8)
 216               	.LSM34:
 217 0046 80E0      		ldi r24,lo8(0)
 218               	.LVL18:
 219 0048 00C0      		rjmp .L11
 220               	.LVL19:
 221               	.L12:
 222               	.LBB78:
 223               	.LBB79:
 224               	.LSM35:
 225 004a 8F5F      		subi r24,lo8(-(1))
 226               	.LVL20:
 227               	.LSM36:
 228 004c 220F      		lsl r18
 229 004e 331F      		rol r19
 230               	.LVL21:
 231               	.L11:
 232               	.LSM37:
 233 0050 2E17      		cp r18,r30
 234 0052 3F07      		cpc r19,r31
 235 0054 00F0      		brlo .L12
 236               	.LBE79:
 237               	.LBE78:
 238               	.LSM38:
 239 0056 4260      		ori r20,lo8(2)
 240               	.LVL22:
 241               	.LBB81:
 242               	.LBB80:
 243               	.LSM39:
 244 0058 8295      		swap r24
 245               	.LVL23:
 246 005a 807F      		andi r24,lo8(-16)
 247               	.LBE80:
 248               	.LBE81:
 249               	.LSM40:
 250 005c 482B      		or r20,r24
 251 005e 812F      		mov r24,r17
 252 0060 0E94 0000 		call Endpoint_ConfigureEndpoint_Prv
 253               	.LVL24:
 254               	.LBE77:
 255               	.LBE76:
 256               	.LSM41:
 257 0064 8823      		tst r24
 258 0066 01F0      		breq .L16
 259               	.LVL25:
 260               	.L9:
 261               	.LBE75:
 262               	.LSM42:
 263 0068 1F5F      		subi r17,lo8(-(1))
 264               	.LVL26:
 265 006a 1530      		cpi r17,lo8(5)
 266 006c 01F4      		brne .L14
 267               	.LSM43:
 268 006e 81E0      		ldi r24,lo8(1)
 269 0070 00C0      		rjmp .L13
 270               	.LVL27:
 271               	.L16:
 272               	.LBB82:
 273               	.LSM44:
 274 0072 80E0      		ldi r24,lo8(0)
 275               	.LVL28:
 276               	.L13:
 277               	/* epilogue start */
 278               	.LBE82:
 279               	.LBE74:
 280               	.LSM45:
 281 0074 DF91      		pop r29
 282 0076 CF91      		pop r28
 283               	.LVL29:
 284 0078 1F91      		pop r17
 285 007a 0895      		ret
 286               	.LFE80:
 288               		.section	.text.MS_Device_USBTask,"ax",@progbits
 289               	.global	MS_Device_USBTask
 291               	MS_Device_USBTask:
 292               	.LFB81:
 293               	.LSM46:
 294               	.LVL30:
 295 0000 0F93      		push r16
 296 0002 1F93      		push r17
 297 0004 CF93      		push r28
 298 0006 DF93      		push r29
 299               	/* prologue: function */
 300               	/* frame size = 0 */
 301               	/* stack size = 4 */
 302               	.L__stack_usage = 4
 303 0008 EC01      		movw r28,r24
 304               	.LSM47:
 305 000a 8091 0000 		lds r24,USB_DeviceState
 306               	.LVL31:
 307 000e 8430      		cpi r24,lo8(4)
 308 0010 01F0      		breq .+2
 309 0012 00C0      		rjmp .L18
 310               	.LSM48:
 311 0014 8D81      		ldd r24,Y+5
 312               	.LVL32:
 313               	.LBB131:
 314               	.LBB132:
 315               	.LSM49:
 316 0016 8093 E900 		sts 233,r24
 317               	.LBE132:
 318               	.LBE131:
 319               	.LBB133:
 320               	.LBB134:
 321               	.LSM50:
 322 001a 8091 E800 		lds r24,232
 323               	.LBE134:
 324               	.LBE133:
 325               	.LSM51:
 326 001e 85FF      		sbrs r24,5
 327 0020 00C0      		rjmp .L20
 328               	.LVL33:
 329               	.LBB135:
 330               	.LBB136:
 331               	.LSM52:
 332 0022 8D81      		ldd r24,Y+5
 333               	.LVL34:
 334               	.LBB137:
 335               	.LBB138:
 336               	.LSM53:
 337 0024 8093 E900 		sts 233,r24
 338               	.LBE138:
 339               	.LBE137:
 340               	.LSM54:
 341 0028 8E01      		movw r16,r28
 342 002a 0A5C      		subi r16,lo8(-(54))
 343 002c 1F4F      		sbci r17,hi8(-(54))
 344 002e 1093 0000 		sts CallbackIsResetSource+1,r17
 345 0032 0093 0000 		sts CallbackIsResetSource,r16
 346               	.LSM55:
 347 0036 CE01      		movw r24,r28
 348 0038 0A96      		adiw r24,10
 349 003a 6FE0      		ldi r22,lo8(15)
 350 003c 70E0      		ldi r23,hi8(15)
 351 003e 40E0      		ldi r20,lo8(gs(StreamCallback_MS_Device_AbortOnMassStoreReset))
 352 0040 50E0      		ldi r21,hi8(gs(StreamCallback_MS_Device_AbortOnMassStoreReset))
 353 0042 0E94 0000 		call Endpoint_Read_Stream_LE
 354               	.LVL35:
 355 0046 8823      		tst r24
 356 0048 01F0      		breq .+2
 357 004a 00C0      		rjmp .L20
 358               	.LSM56:
 359 004c 8A85      		ldd r24,Y+10
 360 004e 9B85      		ldd r25,Y+11
 361 0050 AC85      		ldd r26,Y+12
 362 0052 BD85      		ldd r27,Y+13
 363 0054 8535      		cpi r24,lo8(1128420181)
 364 0056 23E5      		ldi r18,hi8(1128420181)
 365 0058 9207      		cpc r25,r18
 366 005a 22E4      		ldi r18,hlo8(1128420181)
 367 005c A207      		cpc r26,r18
 368 005e 23E4      		ldi r18,hhi8(1128420181)
 369 0060 B207      		cpc r27,r18
 370 0062 01F4      		brne .L22
 371 0064 9F89      		ldd r25,Y+23
 372 0066 8985      		ldd r24,Y+9
 373 0068 9817      		cp r25,r24
 374 006a 00F4      		brsh .L22
 375               	.LSM57:
 376 006c 8E89      		ldd r24,Y+22
 377 006e 90E0      		ldi r25,lo8(0)
 378 0070 8F71      		andi r24,lo8(31)
 379 0072 9070      		andi r25,hi8(31)
 380               	.LSM58:
 381 0074 0097      		sbiw r24,0
 382 0076 01F4      		brne .L22
 383               	.LSM59:
 384 0078 688D      		ldd r22,Y+24
 385               	.LSM60:
 386 007a 6623      		tst r22
 387 007c 01F0      		breq .L22
 388               	.LSM61:
 389 007e 6131      		cpi r22,lo8(17)
 390 0080 00F0      		brlo .L23
 391               	.L22:
 392               	.LBB139:
 393               	.LBB140:
 394               	.LSM62:
 395 0082 8091 EB00 		lds r24,235
 396 0086 8062      		ori r24,lo8(32)
 397 0088 8093 EB00 		sts 235,r24
 398               	.LBE140:
 399               	.LBE139:
 400               	.LSM63:
 401 008c 8981      		ldd r24,Y+1
 402               	.LVL36:
 403               	.LBB141:
 404               	.LBB142:
 405               	.LSM64:
 406 008e 8093 E900 		sts 233,r24
 407               	.LBE142:
 408               	.LBE141:
 409               	.LBB143:
 410               	.LBB144:
 411               	.LSM65:
 412 0092 8091 EB00 		lds r24,235
 413 0096 8062      		ori r24,lo8(32)
 414 0098 8093 EB00 		sts 235,r24
 415 009c 00C0      		rjmp .L20
 416               	.LVL37:
 417               	.L23:
 418               	.LBE144:
 419               	.LBE143:
 420               	.LSM66:
 421 009e 1093 0000 		sts CallbackIsResetSource+1,r17
 422 00a2 0093 0000 		sts CallbackIsResetSource,r16
 423               	.LSM67:
 424 00a6 CE01      		movw r24,r28
 425 00a8 4996      		adiw r24,25
 426 00aa 70E0      		ldi r23,lo8(0)
 427 00ac 40E0      		ldi r20,lo8(gs(StreamCallback_MS_Device_AbortOnMassStoreReset))
 428 00ae 50E0      		ldi r21,hi8(gs(StreamCallback_MS_Device_AbortOnMassStoreReset))
 429 00b0 0E94 0000 		call Endpoint_Read_Stream_LE
 430 00b4 8823      		tst r24
 431 00b6 01F0      		breq .+2
 432 00b8 00C0      		rjmp .L20
 433               	.LBB145:
 434               	.LBB146:
 435               	.LSM68:
 436 00ba 8091 E800 		lds r24,232
 437 00be 8B77      		andi r24,lo8(123)
 438 00c0 8093 E800 		sts 232,r24
 439               	.LBE146:
 440               	.LBE145:
 441               	.LBE136:
 442               	.LBE135:
 443               	.LSM69:
 444 00c4 8E89      		ldd r24,Y+22
 445 00c6 87FF      		sbrs r24,7
 446 00c8 00C0      		rjmp .L25
 447               	.LSM70:
 448 00ca 8981      		ldd r24,Y+1
 449               	.LVL38:
 450               	.LBB147:
 451               	.LBB148:
 452               	.LSM71:
 453 00cc 8093 E900 		sts 233,r24
 454               	.LVL39:
 455               	.L25:
 456               	.LBE148:
 457               	.LBE147:
 458               	.LSM72:
 459 00d0 CE01      		movw r24,r28
 460 00d2 0E94 0000 		call CALLBACK_MS_Device_SCSICommandReceived
 461               	.LSM73:
 462 00d6 91E0      		ldi r25,lo8(1)
 463 00d8 9827      		eor r25,r24
 464               	.LSM74:
 465 00da 9DAB      		std Y+53,r25
 466               	.LSM75:
 467 00dc 25E5      		ldi r18,lo8(1396855637)
 468 00de 33E5      		ldi r19,hi8(1396855637)
 469 00e0 42E4      		ldi r20,hlo8(1396855637)
 470 00e2 53E5      		ldi r21,hhi8(1396855637)
 471 00e4 29A7      		std Y+41,r18
 472 00e6 3AA7      		std Y+42,r19
 473 00e8 4BA7      		std Y+43,r20
 474 00ea 5CA7      		std Y+44,r21
 475               	.LSM76:
 476 00ec 2E85      		ldd r18,Y+14
 477 00ee 3F85      		ldd r19,Y+15
 478 00f0 4889      		ldd r20,Y+16
 479 00f2 5989      		ldd r21,Y+17
 480 00f4 2DA7      		std Y+45,r18
 481 00f6 3EA7      		std Y+46,r19
 482 00f8 4FA7      		std Y+47,r20
 483 00fa 58AB      		std Y+48,r21
 484               	.LSM77:
 485 00fc 2A89      		ldd r18,Y+18
 486 00fe 3B89      		ldd r19,Y+19
 487 0100 4C89      		ldd r20,Y+20
 488 0102 5D89      		ldd r21,Y+21
 489 0104 29AB      		std Y+49,r18
 490 0106 3AAB      		std Y+50,r19
 491 0108 4BAB      		std Y+51,r20
 492 010a 5CAB      		std Y+52,r21
 493               	.LSM78:
 494 010c 9130      		cpi r25,lo8(1)
 495 010e 01F4      		brne .L26
 496               	.LSM79:
 497 0110 2115      		cp r18,__zero_reg__
 498 0112 3105      		cpc r19,__zero_reg__
 499 0114 4105      		cpc r20,__zero_reg__
 500 0116 5105      		cpc r21,__zero_reg__
 501 0118 01F0      		breq .L26
 502               	.LBB149:
 503               	.LBB150:
 504               	.LSM80:
 505 011a 8091 EB00 		lds r24,235
 506 011e 8062      		ori r24,lo8(32)
 507 0120 8093 EB00 		sts 235,r24
 508               	.L26:
 509               	.LVL40:
 510               	.LBE150:
 511               	.LBE149:
 512               	.LBB151:
 513               	.LBB152:
 514               	.LSM81:
 515 0124 8D81      		ldd r24,Y+5
 516               	.LVL41:
 517               	.LBB153:
 518               	.LBB154:
 519               	.LSM82:
 520 0126 8093 E900 		sts 233,r24
 521 012a 00C0      		rjmp .L27
 522               	.LVL42:
 523               	.L28:
 524               	.LBE154:
 525               	.LBE153:
 526               	.LSM83:
 527 012c 0E94 0000 		call USB_USBTask
 528               	.LSM84:
 529 0130 8EA9      		ldd r24,Y+54
 530 0132 8823      		tst r24
 531 0134 01F4      		brne .L20
 532               	.L27:
 533               	.LBB155:
 534               	.LBB156:
 535               	.LSM85:
 536 0136 8091 EB00 		lds r24,235
 537               	.LBE156:
 538               	.LBE155:
 539               	.LSM86:
 540 013a 85FD      		sbrc r24,5
 541 013c 00C0      		rjmp .L28
 542               	.LSM87:
 543 013e 8981      		ldd r24,Y+1
 544               	.LVL43:
 545               	.LBB157:
 546               	.LBB158:
 547               	.LSM88:
 548 0140 8093 E900 		sts 233,r24
 549 0144 00C0      		rjmp .L29
 550               	.LVL44:
 551               	.L30:
 552               	.LBE158:
 553               	.LBE157:
 554               	.LSM89:
 555 0146 0E94 0000 		call USB_USBTask
 556               	.LSM90:
 557 014a 8EA9      		ldd r24,Y+54
 558 014c 8823      		tst r24
 559 014e 01F4      		brne .L20
 560               	.L29:
 561               	.LBB159:
 562               	.LBB160:
 563               	.LSM91:
 564 0150 8091 EB00 		lds r24,235
 565               	.LBE160:
 566               	.LBE159:
 567               	.LSM92:
 568 0154 85FD      		sbrc r24,5
 569 0156 00C0      		rjmp .L30
 570               	.LSM93:
 571 0158 CE01      		movw r24,r28
 572 015a C696      		adiw r24,54
 573 015c 9093 0000 		sts CallbackIsResetSource+1,r25
 574 0160 8093 0000 		sts CallbackIsResetSource,r24
 575               	.LSM94:
 576 0164 CE01      		movw r24,r28
 577 0166 8996      		adiw r24,41
 578 0168 6DE0      		ldi r22,lo8(13)
 579 016a 70E0      		ldi r23,hi8(13)
 580 016c 40E0      		ldi r20,lo8(gs(StreamCallback_MS_Device_AbortOnMassStoreReset))
 581 016e 50E0      		ldi r21,hi8(gs(StreamCallback_MS_Device_AbortOnMassStoreReset))
 582 0170 0E94 0000 		call Endpoint_Write_Stream_LE
 583 0174 8823      		tst r24
 584 0176 01F4      		brne .L20
 585               	.LBB161:
 586               	.LBB162:
 587               	.LSM95:
 588 0178 8091 E800 		lds r24,232
 589 017c 8E77      		andi r24,lo8(126)
 590 017e 8093 E800 		sts 232,r24
 591               	.LVL45:
 592               	.L20:
 593               	.LBE162:
 594               	.LBE161:
 595               	.LBE152:
 596               	.LBE151:
 597               	.LSM96:
 598 0182 8EA9      		ldd r24,Y+54
 599 0184 8823      		tst r24
 600 0186 01F0      		breq .L18
 601               	.LVL46:
 602               	.LBB163:
 603               	.LBB164:
 604               	.LSM97:
 605 0188 81E0      		ldi r24,lo8(1)
 606 018a 90E0      		ldi r25,hi8(1)
 607 018c 9C01      		movw r18,r24
 608 018e 0D80      		ldd r0,Y+5
 609 0190 00C0      		rjmp 2f
 610 0192 220F      	1:	lsl r18
 611 0194 331F      		rol r19
 612 0196 0A94      	2:	dec r0
 613 0198 02F4      		brpl 1b
 614 019a 2093 EA00 		sts 234,r18
 615               	.LSM98:
 616 019e 1092 EA00 		sts 234,__zero_reg__
 617               	.LVL47:
 618               	.LBE164:
 619               	.LBE163:
 620               	.LBB165:
 621               	.LBB166:
 622               	.LSM99:
 623 01a2 0980      		ldd r0,Y+1
 624 01a4 00C0      		rjmp 2f
 625 01a6 880F      	1:	lsl r24
 626 01a8 991F      		rol r25
 627 01aa 0A94      	2:	dec r0
 628 01ac 02F4      		brpl 1b
 629 01ae 8093 EA00 		sts 234,r24
 630               	.LSM100:
 631 01b2 1092 EA00 		sts 234,__zero_reg__
 632               	.LBE166:
 633               	.LBE165:
 634               	.LSM101:
 635 01b6 8D81      		ldd r24,Y+5
 636               	.LVL48:
 637               	.LBB167:
 638               	.LBB168:
 639               	.LSM102:
 640 01b8 8093 E900 		sts 233,r24
 641               	.LBE168:
 642               	.LBE167:
 643               	.LBB169:
 644               	.LBB170:
 645               	.LSM103:
 646 01bc 8091 EB00 		lds r24,235
 647 01c0 8061      		ori r24,lo8(16)
 648 01c2 8093 EB00 		sts 235,r24
 649               	.LBE170:
 650               	.LBE169:
 651               	.LBB171:
 652               	.LBB172:
 653               	.LSM104:
 654 01c6 8091 EB00 		lds r24,235
 655 01ca 8860      		ori r24,lo8(8)
 656 01cc 8093 EB00 		sts 235,r24
 657               	.LBE172:
 658               	.LBE171:
 659               	.LSM105:
 660 01d0 8981      		ldd r24,Y+1
 661               	.LVL49:
 662               	.LBB173:
 663               	.LBB174:
 664               	.LSM106:
 665 01d2 8093 E900 		sts 233,r24
 666               	.LBE174:
 667               	.LBE173:
 668               	.LBB175:
 669               	.LBB176:
 670               	.LSM107:
 671 01d6 8091 EB00 		lds r24,235
 672 01da 8061      		ori r24,lo8(16)
 673 01dc 8093 EB00 		sts 235,r24
 674               	.LBE176:
 675               	.LBE175:
 676               	.LBB177:
 677               	.LBB178:
 678               	.LSM108:
 679 01e0 8091 EB00 		lds r24,235
 680 01e4 8860      		ori r24,lo8(8)
 681 01e6 8093 EB00 		sts 235,r24
 682               	.LBE178:
 683               	.LBE177:
 684               	.LSM109:
 685 01ea 1EAA      		std Y+54,__zero_reg__
 686               	.LVL50:
 687               	.L18:
 688               	/* epilogue start */
 689               	.LSM110:
 690 01ec DF91      		pop r29
 691 01ee CF91      		pop r28
 692               	.LVL51:
 693 01f0 1F91      		pop r17
 694 01f2 0F91      		pop r16
 695 01f4 0895      		ret
 696               	.LFE81:
 698               		.lcomm CallbackIsResetSource,2
 747               	.Letext0:
DEFINED SYMBOLS
                            *ABS*:0000000000000000 MassStorage.c
     /tmp/ccvVWJu9.s:2      *ABS*:000000000000003f __SREG__
     /tmp/ccvVWJu9.s:3      *ABS*:000000000000003e __SP_H__
     /tmp/ccvVWJu9.s:4      *ABS*:000000000000003d __SP_L__
     /tmp/ccvVWJu9.s:5      *ABS*:0000000000000000 __tmp_reg__
     /tmp/ccvVWJu9.s:6      *ABS*:0000000000000001 __zero_reg__
     /tmp/ccvVWJu9.s:19     .text.StreamCallback_MS_Device_AbortOnMassStoreReset:0000000000000000 StreamCallback_MS_Device_AbortOnMassStoreReset
                             .bss:0000000000000000 CallbackIsResetSource
     /tmp/ccvVWJu9.s:40     .text.MS_Device_ProcessControlRequest:0000000000000000 MS_Device_ProcessControlRequest
     /tmp/ccvVWJu9.s:140    .text.MS_Device_ConfigureEndpoints:0000000000000000 MS_Device_ConfigureEndpoints
     /tmp/ccvVWJu9.s:291    .text.MS_Device_USBTask:0000000000000000 MS_Device_USBTask

UNDEFINED SYMBOLS
__do_copy_data
__do_clear_bss
USB_USBTask
USB_ControlRequest
Endpoint_ClearStatusStage
Endpoint_ConfigureEndpoint_Prv
USB_DeviceState
Endpoint_Read_Stream_LE
CALLBACK_MS_Device_SCSICommandReceived
Endpoint_Write_Stream_LE
