   1               		.file	"MIDI.c"
   2               	__SREG__ = 0x3f
   3               	__SP_H__ = 0x3e
   4               	__SP_L__ = 0x3d
   5               	__tmp_reg__ = 0
   6               	__zero_reg__ = 1
   7               		.global __do_copy_data
   8               		.global __do_clear_bss
  16               	.Ltext0:
  17               		.section	.text.MIDI_Device_ConfigureEndpoints,"ax",@progbits
  18               	.global	MIDI_Device_ConfigureEndpoints
  20               	MIDI_Device_ConfigureEndpoints:
  21               	.LFB79:
  22               	.LSM0:
  23               	.LVL0:
  24 0000 1F93      		push r17
  25 0002 CF93      		push r28
  26 0004 DF93      		push r29
  27               	/* prologue: function */
  28               	/* frame size = 0 */
  29               	/* stack size = 3 */
  30               	.L__stack_usage = 3
  31 0006 EC01      		movw r28,r24
  32               	.LVL1:
  33               	.LSM1:
  34 0008 11E0      		ldi r17,lo8(1)
  35               	.LVL2:
  36               	.L9:
  37               	.LBB30:
  38               	.LBB31:
  39               	.LSM2:
  40 000a 8981      		ldd r24,Y+1
  41 000c 1817      		cp r17,r24
  42 000e 01F4      		brne .L2
  43               	.LSM3:
  44 0010 EA81      		ldd r30,Y+2
  45 0012 FB81      		ldd r31,Y+3
  46               	.LVL3:
  47               	.LSM4:
  48 0014 8C81      		ldd r24,Y+4
  49               	.LVL4:
  50               	.LSM5:
  51 0016 61E0      		ldi r22,lo8(1)
  52 0018 00C0      		rjmp .L3
  53               	.LVL5:
  54               	.L2:
  55               	.LSM6:
  56 001a 8D81      		ldd r24,Y+5
  57 001c 1817      		cp r17,r24
  58 001e 01F4      		brne .L4
  59               	.LSM7:
  60 0020 EE81      		ldd r30,Y+6
  61 0022 FF81      		ldd r31,Y+7
  62               	.LVL6:
  63               	.LSM8:
  64 0024 8885      		ldd r24,Y+8
  65               	.LVL7:
  66               	.LSM9:
  67 0026 60E0      		ldi r22,lo8(0)
  68               	.LVL8:
  69               	.L3:
  70               	.LSM10:
  71 0028 8823      		tst r24
  72 002a 01F0      		breq .L10
  73 002c 44E0      		ldi r20,lo8(4)
  74 002e 00C0      		rjmp .L5
  75               	.L10:
  76 0030 40E0      		ldi r20,lo8(0)
  77               	.L5:
  78               	.LVL9:
  79               	.LBB32:
  80               	.LBB33:
  81               	.LSM11:
  82 0032 6068      		ori r22,lo8(-128)
  83               	.LVL10:
  84               	.LSM12:
  85 0034 28E0      		ldi r18,lo8(8)
  86 0036 30E0      		ldi r19,hi8(8)
  87               	.LSM13:
  88 0038 80E0      		ldi r24,lo8(0)
  89               	.LVL11:
  90 003a 00C0      		rjmp .L6
  91               	.LVL12:
  92               	.L7:
  93               	.LBB34:
  94               	.LBB35:
  95               	.LSM14:
  96 003c 8F5F      		subi r24,lo8(-(1))
  97               	.LVL13:
  98               	.LSM15:
  99 003e 220F      		lsl r18
 100 0040 331F      		rol r19
 101               	.LVL14:
 102               	.L6:
 103               	.LSM16:
 104 0042 2E17      		cp r18,r30
 105 0044 3F07      		cpc r19,r31
 106 0046 00F0      		brlo .L7
 107               	.LBE35:
 108               	.LBE34:
 109               	.LSM17:
 110 0048 4260      		ori r20,lo8(2)
 111               	.LVL15:
 112               	.LBB37:
 113               	.LBB36:
 114               	.LSM18:
 115 004a 8295      		swap r24
 116               	.LVL16:
 117 004c 807F      		andi r24,lo8(-16)
 118               	.LBE36:
 119               	.LBE37:
 120               	.LSM19:
 121 004e 482B      		or r20,r24
 122 0050 812F      		mov r24,r17
 123 0052 0E94 0000 		call Endpoint_ConfigureEndpoint_Prv
 124               	.LVL17:
 125               	.LBE33:
 126               	.LBE32:
 127               	.LSM20:
 128 0056 8823      		tst r24
 129 0058 01F0      		breq .L11
 130               	.LVL18:
 131               	.L4:
 132               	.LBE31:
 133               	.LSM21:
 134 005a 1F5F      		subi r17,lo8(-(1))
 135               	.LVL19:
 136 005c 1530      		cpi r17,lo8(5)
 137 005e 01F4      		brne .L9
 138               	.LSM22:
 139 0060 81E0      		ldi r24,lo8(1)
 140 0062 00C0      		rjmp .L8
 141               	.LVL20:
 142               	.L11:
 143               	.LBB38:
 144               	.LSM23:
 145 0064 80E0      		ldi r24,lo8(0)
 146               	.LVL21:
 147               	.L8:
 148               	/* epilogue start */
 149               	.LBE38:
 150               	.LBE30:
 151               	.LSM24:
 152 0066 DF91      		pop r29
 153 0068 CF91      		pop r28
 154               	.LVL22:
 155 006a 1F91      		pop r17
 156 006c 0895      		ret
 157               	.LFE79:
 159               		.section	.text.MIDI_Device_SendEventPacket,"ax",@progbits
 160               	.global	MIDI_Device_SendEventPacket
 162               	MIDI_Device_SendEventPacket:
 163               	.LFB81:
 164               	.LSM25:
 165               	.LVL23:
 166               	/* prologue: function */
 167               	/* frame size = 0 */
 168               	/* stack size = 0 */
 169               	.L__stack_usage = 0
 170 0000 FC01      		movw r30,r24
 171 0002 CB01      		movw r24,r22
 172               	.LVL24:
 173               	.LSM26:
 174 0004 2091 0000 		lds r18,USB_DeviceState
 175 0008 2430      		cpi r18,lo8(4)
 176 000a 01F4      		brne .L15
 177               	.LSM27:
 178 000c 2181      		ldd r18,Z+1
 179               	.LVL25:
 180               	.LBB39:
 181               	.LBB40:
 182               	.LSM28:
 183 000e 2093 E900 		sts 233,r18
 184               	.LBE40:
 185               	.LBE39:
 186               	.LSM29:
 187 0012 64E0      		ldi r22,lo8(4)
 188 0014 70E0      		ldi r23,hi8(4)
 189               	.LVL26:
 190 0016 40E0      		ldi r20,lo8(0)
 191 0018 50E0      		ldi r21,hi8(0)
 192 001a 0E94 0000 		call Endpoint_Write_Stream_LE
 193               	.LVL27:
 194 001e 8823      		tst r24
 195 0020 01F4      		brne .L14
 196               	.LBB41:
 197               	.LBB42:
 198               	.LSM30:
 199 0022 9091 E800 		lds r25,232
 200               	.LBE42:
 201               	.LBE41:
 202               	.LSM31:
 203 0026 95FD      		sbrc r25,5
 204 0028 00C0      		rjmp .L14
 205               	.LBB43:
 206               	.LBB44:
 207               	.LSM32:
 208 002a 9091 E800 		lds r25,232
 209 002e 9E77      		andi r25,lo8(126)
 210 0030 9093 E800 		sts 232,r25
 211 0034 0895      		ret
 212               	.LVL28:
 213               	.L15:
 214               	.LBE44:
 215               	.LBE43:
 216               	.LSM33:
 217 0036 82E0      		ldi r24,lo8(2)
 218               	.LVL29:
 219               	.L14:
 220               	.LSM34:
 221 0038 0895      		ret
 222               	.LFE81:
 224               		.section	.text.MIDI_Device_Flush,"ax",@progbits
 225               	.global	MIDI_Device_Flush
 227               	MIDI_Device_Flush:
 228               	.LFB82:
 229               	.LSM35:
 230               	.LVL30:
 231               	/* prologue: function */
 232               	/* frame size = 0 */
 233               	/* stack size = 0 */
 234               	.L__stack_usage = 0
 235               	.LSM36:
 236 0000 2091 0000 		lds r18,USB_DeviceState
 237 0004 2430      		cpi r18,lo8(4)
 238 0006 01F4      		brne .L18
 239               	.LSM37:
 240 0008 FC01      		movw r30,r24
 241 000a 8181      		ldd r24,Z+1
 242               	.LVL31:
 243               	.LBB45:
 244               	.LBB46:
 245               	.LSM38:
 246 000c 8093 E900 		sts 233,r24
 247               	.LBE46:
 248               	.LBE45:
 249               	.LBB47:
 250               	.LBB48:
 251               	.LSM39:
 252 0010 8091 F200 		lds r24,242
 253               	.LBE48:
 254               	.LBE47:
 255               	.LSM40:
 256 0014 8823      		tst r24
 257 0016 01F0      		breq .L19
 258               	.LBB49:
 259               	.LBB50:
 260               	.LSM41:
 261 0018 8091 E800 		lds r24,232
 262 001c 8E77      		andi r24,lo8(126)
 263 001e 8093 E800 		sts 232,r24
 264               	.LBE50:
 265               	.LBE49:
 266               	.LSM42:
 267 0022 0E94 0000 		call Endpoint_WaitUntilReady
 268               	.LVL32:
 269 0026 0895      		ret
 270               	.LVL33:
 271               	.L18:
 272               	.LSM43:
 273 0028 82E0      		ldi r24,lo8(2)
 274               	.LVL34:
 275 002a 0895      		ret
 276               	.LVL35:
 277               	.L19:
 278               	.LSM44:
 279 002c 80E0      		ldi r24,lo8(0)
 280               	.LSM45:
 281 002e 0895      		ret
 282               	.LFE82:
 284               		.section	.text.MIDI_Device_USBTask,"ax",@progbits
 285               	.global	MIDI_Device_USBTask
 287               	MIDI_Device_USBTask:
 288               	.LFB80:
 289               	.LSM46:
 290               	.LVL36:
 291               	/* prologue: function */
 292               	/* frame size = 0 */
 293               	/* stack size = 0 */
 294               	.L__stack_usage = 0
 295               	.LSM47:
 296 0000 2091 0000 		lds r18,USB_DeviceState
 297 0004 2430      		cpi r18,lo8(4)
 298 0006 01F4      		brne .L20
 299               	.LSM48:
 300 0008 0E94 0000 		call MIDI_Device_Flush
 301               	.LVL37:
 302               	.L20:
 303 000c 0895      		ret
 304               	.LFE80:
 306               		.section	.text.MIDI_Device_ReceiveEventPacket,"ax",@progbits
 307               	.global	MIDI_Device_ReceiveEventPacket
 309               	MIDI_Device_ReceiveEventPacket:
 310               	.LFB83:
 311               	.LSM49:
 312               	.LVL38:
 313               	/* prologue: function */
 314               	/* frame size = 0 */
 315               	/* stack size = 0 */
 316               	.L__stack_usage = 0
 317 0000 FC01      		movw r30,r24
 318 0002 CB01      		movw r24,r22
 319               	.LVL39:
 320               	.LSM50:
 321 0004 2091 0000 		lds r18,USB_DeviceState
 322 0008 2430      		cpi r18,lo8(4)
 323 000a 01F4      		brne .L25
 324               	.LSM51:
 325 000c 2581      		ldd r18,Z+5
 326               	.LVL40:
 327               	.LBB51:
 328               	.LBB52:
 329               	.LSM52:
 330 000e 2093 E900 		sts 233,r18
 331               	.LBE52:
 332               	.LBE51:
 333               	.LBB53:
 334               	.LBB54:
 335               	.LSM53:
 336 0012 2091 E800 		lds r18,232
 337               	.LBE54:
 338               	.LBE53:
 339               	.LSM54:
 340 0016 25FF      		sbrs r18,5
 341 0018 00C0      		rjmp .L25
 342               	.LSM55:
 343 001a 64E0      		ldi r22,lo8(4)
 344 001c 70E0      		ldi r23,hi8(4)
 345               	.LVL41:
 346 001e 40E0      		ldi r20,lo8(0)
 347 0020 50E0      		ldi r21,hi8(0)
 348 0022 0E94 0000 		call Endpoint_Read_Stream_LE
 349               	.LVL42:
 350               	.LBB55:
 351               	.LBB56:
 352               	.LSM56:
 353 0026 8091 E800 		lds r24,232
 354               	.LBE56:
 355               	.LBE55:
 356               	.LSM57:
 357 002a 85FD      		sbrc r24,5
 358 002c 00C0      		rjmp .L26
 359               	.LBB57:
 360               	.LBB58:
 361               	.LSM58:
 362 002e 8091 E800 		lds r24,232
 363 0032 8B77      		andi r24,lo8(123)
 364 0034 8093 E800 		sts 232,r24
 365               	.LSM59:
 366 0038 81E0      		ldi r24,lo8(1)
 367 003a 0895      		ret
 368               	.LVL43:
 369               	.L25:
 370               	.LBE58:
 371               	.LBE57:
 372               	.LSM60:
 373 003c 80E0      		ldi r24,lo8(0)
 374 003e 0895      		ret
 375               	.LVL44:
 376               	.L26:
 377               	.LSM61:
 378 0040 81E0      		ldi r24,lo8(1)
 379               	.LSM62:
 380 0042 0895      		ret
 381               	.LFE83:
 439               	.Letext0:
DEFINED SYMBOLS
                            *ABS*:0000000000000000 MIDI.c
     /tmp/ccciDzbg.s:2      *ABS*:000000000000003f __SREG__
     /tmp/ccciDzbg.s:3      *ABS*:000000000000003e __SP_H__
     /tmp/ccciDzbg.s:4      *ABS*:000000000000003d __SP_L__
     /tmp/ccciDzbg.s:5      *ABS*:0000000000000000 __tmp_reg__
     /tmp/ccciDzbg.s:6      *ABS*:0000000000000001 __zero_reg__
     /tmp/ccciDzbg.s:20     .text.MIDI_Device_ConfigureEndpoints:0000000000000000 MIDI_Device_ConfigureEndpoints
     /tmp/ccciDzbg.s:162    .text.MIDI_Device_SendEventPacket:0000000000000000 MIDI_Device_SendEventPacket
     /tmp/ccciDzbg.s:227    .text.MIDI_Device_Flush:0000000000000000 MIDI_Device_Flush
     /tmp/ccciDzbg.s:287    .text.MIDI_Device_USBTask:0000000000000000 MIDI_Device_USBTask
     /tmp/ccciDzbg.s:309    .text.MIDI_Device_ReceiveEventPacket:0000000000000000 MIDI_Device_ReceiveEventPacket

UNDEFINED SYMBOLS
__do_copy_data
__do_clear_bss
Endpoint_ConfigureEndpoint_Prv
USB_DeviceState
Endpoint_Write_Stream_LE
Endpoint_WaitUntilReady
Endpoint_Read_Stream_LE
