   1               		.file	"Endpoint.c"
   2               	__SREG__ = 0x3f
   3               	__SP_H__ = 0x3e
   4               	__SP_L__ = 0x3d
   5               	__tmp_reg__ = 0
   6               	__zero_reg__ = 1
   7               		.global __do_copy_data
   8               		.global __do_clear_bss
  16               	.Ltext0:
  17               		.section	.text.Endpoint_ConfigureEndpoint_Prv,"ax",@progbits
  18               	.global	Endpoint_ConfigureEndpoint_Prv
  20               	Endpoint_ConfigureEndpoint_Prv:
  21               	.LFB66:
  22               	.LSM0:
  23               	.LVL0:
  24               	/* prologue: function */
  25               	/* frame size = 0 */
  26               	/* stack size = 0 */
  27               	.L__stack_usage = 0
  28               	.LBB34:
  29               	.LBB35:
  30               	.LSM1:
  31 0000 8093 E900 		sts 233,r24
  32               	.LBE35:
  33               	.LBE34:
  34               	.LBB36:
  35               	.LBB37:
  36               	.LSM2:
  37 0004 EBEE      		ldi r30,lo8(235)
  38 0006 F0E0      		ldi r31,hi8(235)
  39 0008 8081      		ld r24,Z
  40               	.LVL1:
  41 000a 8160      		ori r24,lo8(1)
  42 000c 8083      		st Z,r24
  43               	.LBE37:
  44               	.LBE36:
  45               	.LSM3:
  46 000e EDEE      		ldi r30,lo8(237)
  47 0010 F0E0      		ldi r31,hi8(237)
  48 0012 1082      		st Z,__zero_reg__
  49               	.LSM4:
  50 0014 6093 EC00 		sts 236,r22
  51               	.LSM5:
  52 0018 4083      		st Z,r20
  53               	.LBB38:
  54               	.LBB39:
  55               	.LSM6:
  56 001a 8091 EE00 		lds r24,238
  57               	.LBE39:
  58               	.LBE38:
  59               	.LSM7:
  60 001e 881F      		rol r24
  61 0020 8827      		clr r24
  62 0022 881F      		rol r24
  63               	/* epilogue start */
  64 0024 0895      		ret
  65               	.LFE66:
  67               		.section	.text.Endpoint_ClearEndpoints,"ax",@progbits
  68               	.global	Endpoint_ClearEndpoints
  70               	Endpoint_ClearEndpoints:
  71               	.LFB67:
  72               	.LSM8:
  73               	/* prologue: function */
  74               	/* frame size = 0 */
  75               	/* stack size = 0 */
  76               	.L__stack_usage = 0
  77               	.LSM9:
  78 0000 1092 F400 		sts 244,__zero_reg__
  79               	.LVL2:
  80               	.LSM10:
  81 0004 80E0      		ldi r24,lo8(0)
  82               	.LVL3:
  83               	.L3:
  84               	.LBB40:
  85               	.LBB41:
  86               	.LBB42:
  87               	.LSM11:
  88 0006 8093 E900 		sts 233,r24
  89               	.LBE42:
  90               	.LBE41:
  91               	.LSM12:
  92 000a 1092 F000 		sts 240,__zero_reg__
  93               	.LSM13:
  94 000e 1092 E800 		sts 232,__zero_reg__
  95               	.LSM14:
  96 0012 1092 ED00 		sts 237,__zero_reg__
  97               	.LBB43:
  98               	.LBB44:
  99               	.LSM15:
 100 0016 9091 EB00 		lds r25,235
 101 001a 9E7F      		andi r25,lo8(-2)
 102 001c 9093 EB00 		sts 235,r25
 103               	.LBE44:
 104               	.LBE43:
 105               	.LSM16:
 106 0020 8F5F      		subi r24,lo8(-(1))
 107               	.LVL4:
 108 0022 8530      		cpi r24,lo8(5)
 109 0024 01F4      		brne .L3
 110               	/* epilogue start */
 111               	.LBE40:
 112               	.LSM17:
 113 0026 0895      		ret
 114               	.LFE67:
 116               		.section	.text.Endpoint_ClearStatusStage,"ax",@progbits
 117               	.global	Endpoint_ClearStatusStage
 119               	Endpoint_ClearStatusStage:
 120               	.LFB68:
 121               	.LSM18:
 122               	/* prologue: function */
 123               	/* frame size = 0 */
 124               	/* stack size = 0 */
 125               	.L__stack_usage = 0
 126               	.LSM19:
 127 0000 8091 0000 		lds r24,USB_ControlRequest
 128 0004 87FF      		sbrs r24,7
 129 0006 00C0      		rjmp .L12
 130 0008 00C0      		rjmp .L11
 131               	.L9:
 132               	.LSM20:
 133 000a 8091 0000 		lds r24,USB_DeviceState
 134 000e 8823      		tst r24
 135 0010 01F0      		breq .L5
 136               	.L11:
 137               	.LBB45:
 138               	.LBB46:
 139               	.LSM21:
 140 0012 8091 E800 		lds r24,232
 141               	.LBE46:
 142               	.LBE45:
 143               	.LSM22:
 144 0016 82FF      		sbrs r24,2
 145 0018 00C0      		rjmp .L9
 146               	.LBB47:
 147               	.LBB48:
 148               	.LSM23:
 149 001a 8091 E800 		lds r24,232
 150 001e 8B77      		andi r24,lo8(123)
 151 0020 8093 E800 		sts 232,r24
 152 0024 0895      		ret
 153               	.L10:
 154               	.LBE48:
 155               	.LBE47:
 156               	.LSM24:
 157 0026 8091 0000 		lds r24,USB_DeviceState
 158 002a 8823      		tst r24
 159 002c 01F0      		breq .L5
 160               	.L12:
 161               	.LBB49:
 162               	.LBB50:
 163               	.LSM25:
 164 002e 8091 E800 		lds r24,232
 165               	.LBE50:
 166               	.LBE49:
 167               	.LSM26:
 168 0032 80FF      		sbrs r24,0
 169 0034 00C0      		rjmp .L10
 170               	.LBB51:
 171               	.LBB52:
 172               	.LSM27:
 173 0036 8091 E800 		lds r24,232
 174 003a 8E77      		andi r24,lo8(126)
 175 003c 8093 E800 		sts 232,r24
 176               	.L5:
 177 0040 0895      		ret
 178               	.LBE52:
 179               	.LBE51:
 180               	.LFE68:
 182               		.section	.text.Endpoint_WaitUntilReady,"ax",@progbits
 183               	.global	Endpoint_WaitUntilReady
 185               	Endpoint_WaitUntilReady:
 186               	.LFB69:
 187               	.LSM28:
 188               	/* prologue: function */
 189               	/* frame size = 0 */
 190               	/* stack size = 0 */
 191               	.L__stack_usage = 0
 192               	.LVL5:
 193               	.LBB53:
 194               	.LBB54:
 195               	.LSM29:
 196 0000 8091 E400 		lds r24,228
 197 0004 9091 E500 		lds r25,228+1
 198               	.LSM30:
 199 0008 44E6      		ldi r20,lo8(100)
 200               	.LVL6:
 201               	.L27:
 202               	.LBE54:
 203               	.LBE53:
 204               	.LBB55:
 205               	.LBB56:
 206               	.LBB57:
 207               	.LSM31:
 208 000a 2091 EC00 		lds r18,236
 209               	.LBE57:
 210               	.LBE56:
 211               	.LSM32:
 212 000e 20FF      		sbrs r18,0
 213 0010 00C0      		rjmp .L14
 214               	.LBB58:
 215               	.LBB59:
 216               	.LSM33:
 217 0012 2091 E800 		lds r18,232
 218               	.LBE59:
 219               	.LBE58:
 220               	.LSM34:
 221 0016 20FF      		sbrs r18,0
 222 0018 00C0      		rjmp .L16
 223 001a 00C0      		rjmp .L20
 224               	.L14:
 225               	.LBB60:
 226               	.LBB61:
 227               	.LSM35:
 228 001c 2091 E800 		lds r18,232
 229               	.LBE61:
 230               	.LBE60:
 231               	.LSM36:
 232 0020 22FD      		sbrc r18,2
 233 0022 00C0      		rjmp .L20
 234               	.L16:
 235               	.LSM37:
 236 0024 2091 0000 		lds r18,USB_DeviceState
 237               	.LVL7:
 238               	.LSM38:
 239 0028 2223      		tst r18
 240 002a 01F0      		breq .L21
 241               	.LSM39:
 242 002c 2530      		cpi r18,lo8(5)
 243 002e 01F0      		breq .L22
 244               	.LBB62:
 245               	.LBB63:
 246               	.LSM40:
 247 0030 2091 EB00 		lds r18,235
 248               	.LVL8:
 249               	.LBE63:
 250               	.LBE62:
 251               	.LSM41:
 252 0034 25FD      		sbrc r18,5
 253 0036 00C0      		rjmp .L23
 254               	.LBB64:
 255               	.LBB65:
 256               	.LSM42:
 257 0038 2091 E400 		lds r18,228
 258 003c 3091 E500 		lds r19,228+1
 259               	.LBE65:
 260               	.LBE64:
 261               	.LSM43:
 262 0040 2817      		cp r18,r24
 263 0042 3907      		cpc r19,r25
 264 0044 01F0      		breq .L27
 265               	.LVL9:
 266               	.LSM44:
 267 0046 4423      		tst r20
 268 0048 01F0      		breq .L24
 269 004a 4150      		subi r20,lo8(-(-1))
 270               	.LVL10:
 271               	.LSM45:
 272 004c C901      		movw r24,r18
 273 004e 00C0      		rjmp .L27
 274               	.LVL11:
 275               	.L20:
 276               	.LSM46:
 277 0050 80E0      		ldi r24,lo8(0)
 278               	.LVL12:
 279 0052 0895      		ret
 280               	.LVL13:
 281               	.L21:
 282               	.LSM47:
 283 0054 82E0      		ldi r24,lo8(2)
 284               	.LVL14:
 285 0056 0895      		ret
 286               	.LVL15:
 287               	.L22:
 288               	.LSM48:
 289 0058 83E0      		ldi r24,lo8(3)
 290               	.LVL16:
 291 005a 0895      		ret
 292               	.LVL17:
 293               	.L23:
 294               	.LSM49:
 295 005c 81E0      		ldi r24,lo8(1)
 296               	.LVL18:
 297 005e 0895      		ret
 298               	.LVL19:
 299               	.L24:
 300               	.LSM50:
 301 0060 84E0      		ldi r24,lo8(4)
 302               	.LBE55:
 303               	.LSM51:
 304 0062 0895      		ret
 305               	.LFE69:
 355               	.Letext0:
DEFINED SYMBOLS
                            *ABS*:0000000000000000 Endpoint.c
     /tmp/ccEwDWpv.s:2      *ABS*:000000000000003f __SREG__
     /tmp/ccEwDWpv.s:3      *ABS*:000000000000003e __SP_H__
     /tmp/ccEwDWpv.s:4      *ABS*:000000000000003d __SP_L__
     /tmp/ccEwDWpv.s:5      *ABS*:0000000000000000 __tmp_reg__
     /tmp/ccEwDWpv.s:6      *ABS*:0000000000000001 __zero_reg__
     /tmp/ccEwDWpv.s:20     .text.Endpoint_ConfigureEndpoint_Prv:0000000000000000 Endpoint_ConfigureEndpoint_Prv
     /tmp/ccEwDWpv.s:70     .text.Endpoint_ClearEndpoints:0000000000000000 Endpoint_ClearEndpoints
     /tmp/ccEwDWpv.s:119    .text.Endpoint_ClearStatusStage:0000000000000000 Endpoint_ClearStatusStage
     /tmp/ccEwDWpv.s:185    .text.Endpoint_WaitUntilReady:0000000000000000 Endpoint_WaitUntilReady

UNDEFINED SYMBOLS
__do_copy_data
__do_clear_bss
USB_ControlRequest
USB_DeviceState
